…
``` r
remotes::install_github("r-congress/tccong")
```

## Tweeters

Data returned from TweetCongress’ Tweeters API

``` r
## fetch tweeters data
twtrs <- tcc_tweeters()

## view data
twtrs
#> # A tibble: 532 x 31
#>    `_id` slug  fullName gender dateOfBirth phone email profileImageSma… website facebookUserName
#>    <chr> <chr> <chr>    <chr>  <chr>       <chr> <lgl> <chr>            <chr>   <chr>           
#>  1 A000… A000… Ralph A… M      1954-09-16  202-… NA    https://theunit… https:… CongressmanRalp…
#>  2 A000… A000… Alma Ad… F      1946-05-27  202-… NA    https://theunit… https:… CongresswomanAd…
#>  3 A000… A000… Robert … M      1965-07-22  202-… NA    https://theunit… https:… RobertAderholt  
#>  4 A000… A000… Pete Ag… M      1979-06-19  202-… NA    https://theunit… https:… reppeteaguilar  
#>  5 A000… A000… Lamar A… M      1940-07-03  202-… NA    https://theunit… https:… senatorlamarale…
#>  6 A000… A000… Rick Al… M      1951-11-07  202-… NA    https://theunit… https:… CongressmanRick…
#>  7 A000… A000… Colin A… M      1983-04-15  202-… NA    https://theunit… https:… <NA>            
#>  8 R000… R000… Aumua A… F      1947-12-29  202-… NA    https://theunit… https:… aumuaamata      
#>  9 A000… A000… Mark Am… M      1958-06-12  202-… NA    https://theunit… https:… MarkAmodeiNV2   
#> 10 A000… A000… Kelly A… M      1976-10-08  202-… NA    https://theunit… https:… <NA>            
#> # … with 522 more rows, and 21 more variables: twitterUserName <chr>, fullState <chr>,
#> #   address <chr>, leadershipRole <lgl>, chamber <chr>, district <int>, state <chr>, party <chr>,
#> #   termEnd <lgl>, termStart <chr>, title <lgl>, country <chr>, profileImageUrl <chr>,
#> #   verified <lgl>, friendsCount <int>, statusesCount <int>, followersCount <int>, url <chr>,
#> #   screenName <chr>, name <chr>, idStr <dbl>
```
…
